{
    "apps" : [
        {
            "name"              : "wts",
            "script"            : "src/index.js",
            "watch"             : true,
            "watch_options" : {
                "usePolling"    : true,
                "useFsEvents"   : true
            },
            "cwd"               : "/webThings",
            "env": {
                "NODE_PATH": "/webThings",
                "PI_GARDEN_ENV": "DEV"
            },
            "env_production": {
                "NODE_PATH": "/webThings",
                "PI_GARDEN_ENV": "PRODUCTION"
            }
        }
    ]
}
